{
  "source": "https://gitlab.com/mudler/Mottainai-test",
  "script": "./sark-localbuild",
  "directory": "/entropy-staging",
  "task": "docker_execute",
  "image": "sabayon/builder-amd64",
  "artefact_path": "artifacts",
  "cache_image": "yes",
  "tag_namespace": "entropy-staging",
  "environment": [ "REPOSITORY_NAME=entropy", "SAB_BUILDFILE=latest.yaml" ]
}
