{
  "source": "https://gitlab.com/mudler/Mottainai-test",
  "script": ["export LC_ALL=en_US.UTF-8","wget https://raw.githubusercontent.com/Sabayon/devkit/master/builder -O ./builder","wget https://raw.githubusercontent.com/Sabayon/sabayon-sark/master/sark-localbuild -O ./sark-localbuild","chmod a+x ./builder","chmod a+x ./sark-localbuild","./sark-localbuild"],
  "directory": "/systemd",
  "task": "docker_execute",
  "namespace": "",
  "artefact_path": "artifacts",
  "storage":"",
  "storage_path": "confs",
  "image": "sabayon/builder-amd64",
  "root_task": "",
  "tag_namespace": "systemd",
  "cache_image": "yes"
}
